<?xml version="1.0" encoding="utf-8"?>
<!-- Generator: Adobe Illustrator 16.0.0, SVG Export Plug-In . SVG Version: 6.00 Build 0)  -->
<!DOCTYPE svg PUBLIC "-//W3C//DTD SVG 1.1//EN" "http://www.w3.org/Graphics/SVG/1.1/DTD/svg11.dtd">
<svg version="1.1" id="Layer_1" xmlns="http://www.w3.org/2000/svg" xmlns:xlink="http://www.w3.org/1999/xlink" x="0px" y="0px"
	 width="64px" height="64px" viewBox="-20 -20 64 64" enable-background="new -20 -20 64 64" xml:space="preserve">
<path fill="#62BF63" d="M40.8-7.2H34.4v28.8H-7.2V28c0,1.76,1.441,3.2,3.2,3.2h35.2L44,44V-4C44-5.759,42.56-7.2,40.8-7.2z M28,12
	v-28.8c0-1.76-1.44-3.2-3.2-3.2h-41.6c-1.76,0-3.2,1.44-3.2,3.2V28l12.8-12.8h32C26.56,15.2,28,13.76,28,12z"/>
</svg>
