<?xml version="1.0" encoding="utf-8"?>
<!-- Generator: Adobe Illustrator 16.0.0, SVG Export Plug-In . SVG Version: 6.00 Build 0)  -->
<!DOCTYPE svg PUBLIC "-//W3C//DTD SVG 1.1//EN" "http://www.w3.org/Graphics/SVG/1.1/DTD/svg11.dtd">
<svg version="1.1" id="Layer_1" xmlns="http://www.w3.org/2000/svg" xmlns:xlink="http://www.w3.org/1999/xlink" x="0px" y="0px"
	 width="64px" height="64px" viewBox="0 0 64 64" enable-background="new 0 0 64 64" xml:space="preserve">
<path fill="#62BF63" d="M32.008,0c-1.786,1.929-3.321,3.75-4.571,5.75c-3.465,5.607-4.571,11.679-2.679,16.607
	C28.651,32.75,30.08,35.43,30.08,43.715h-2.751c0-8.75-3.715-15.179-8.928-17.072c-2.322-0.821-5.286-0.428-8.036,2.321
	c-3.394,3.429-4.357,12.786,5.571,14.608c-1.25-2.072-0.857-5.68,2.179-6.429c4.214-1.036,5.929,3.929,5.929,6.571h-4.715v5.143
	h9.821c-0.143,2.643-1.607,4.785-4.357,5.964c0.357,1.108,2.001,3.394,4.286,3.215c0.464,2.429,0.893,3.784,2.929,5.964
	c2.035-2.18,2.464-3.535,2.928-5.964c2.286,0.179,3.929-2.106,4.286-3.215c-2.75-1.179-4.214-3.321-4.356-5.964h9.821v-5.143h-4.714
	c0-2.643,1.714-7.607,5.929-6.571c3.034,0.749,3.429,4.356,2.177,6.429c9.93-1.822,8.966-11.179,5.573-14.608
	c-2.751-2.749-5.715-3.142-8.036-2.321c-5.215,1.893-8.929,8.322-8.929,17.072h-2.75c0-8.285,1.429-10.965,5.32-21.358
	c1.894-4.928,0.787-11-2.679-16.607C35.328,3.75,33.793,1.929,32.008,0z"/>
</svg>
