<?xml version="1.0" encoding="utf-8"?>
<!-- Generator: Adobe Illustrator 16.0.0, SVG Export Plug-In . SVG Version: 6.00 Build 0)  -->
<!DOCTYPE svg PUBLIC "-//W3C//DTD SVG 1.1//EN" "http://www.w3.org/Graphics/SVG/1.1/DTD/svg11.dtd">
<svg version="1.1" id="Layer_1" xmlns="http://www.w3.org/2000/svg" xmlns:xlink="http://www.w3.org/1999/xlink" x="0px" y="0px"
	 width="64px" height="64px" viewBox="0 0 64 64" enable-background="new 0 0 64 64" xml:space="preserve">
<rect x="27.864" y="13.776" fill="#62BF63" width="9.437" height="25.274"/>
<path fill="#FFFFFF" d="M37.301,13.776v25.274h-9.437V13.776H37.301 M37.734,13.342h-0.434h-9.437H27.43v0.434v25.274v0.435h0.434
	h9.437h0.434v-0.435V13.776V13.342L37.734,13.342z"/>
<circle fill="#62BF63" cx="32.582" cy="5.857" r="5.424"/>
<path fill="#FFFFFF" d="M32.582,0.434c2.996,0,5.424,2.429,5.424,5.424c0,2.996-2.428,5.424-5.424,5.424
	c-2.995,0-5.423-2.428-5.423-5.424C27.159,2.862,29.587,0.434,32.582,0.434 M32.582,0c-3.229,0-5.857,2.627-5.857,5.857
	s2.628,5.858,5.857,5.858c3.23,0,5.857-2.628,5.857-5.858S35.812,0,32.582,0L32.582,0z"/>
<rect x="15.389" y="23.105" fill="#62BF63" width="9.437" height="25.275"/>
<path fill="#FFFFFF" d="M24.826,23.105V48.38h-9.437V23.105H24.826 M25.26,22.671h-0.434h-9.437h-0.434v0.434V48.38v0.434h0.434
	h9.437h0.434V48.38V23.105V22.671L25.26,22.671z"/>
<circle fill="#62BF63" cx="20.107" cy="15.187" r="5.424"/>
<path fill="#FFFFFF" d="M20.107,9.763c2.996,0,5.424,2.428,5.424,5.424c0,2.995-2.428,5.424-5.424,5.424
	c-2.995,0-5.424-2.429-5.424-5.424C14.684,12.191,17.112,9.763,20.107,9.763 M20.107,9.329c-3.229,0-5.857,2.628-5.857,5.858
	s2.628,5.857,5.857,5.857c3.23,0,5.858-2.627,5.858-5.857S23.337,9.329,20.107,9.329L20.107,9.329z"/>
<path fill="#62BF63" d="M51.252,49.313H39.947V22.171h11.305V49.313z M41.381,47.88h8.438V23.605h-8.438V47.88z"/>
<path fill="#62BF63" d="M45.6,21.544c-3.506,0-6.357-2.852-6.357-6.357c0-3.506,2.852-6.358,6.357-6.358s6.357,2.852,6.357,6.358
	C51.957,18.692,49.105,21.544,45.6,21.544z M45.6,10.263c-2.715,0-4.924,2.209-4.924,4.924s2.209,4.924,4.924,4.924
	s4.924-2.209,4.924-4.924S48.314,10.263,45.6,10.263z"/>
<rect x="20.053" y="38.292" fill="#62BF63" width="9.438" height="25.274"/>
<path fill="#FFFFFF" d="M29.491,38.292v25.274h-9.438V38.292H29.491 M29.924,37.858h-0.434h-9.438H19.62v0.434v25.274V64h0.434
	h9.438h0.434v-0.434V38.292V37.858L29.924,37.858z"/>
<circle fill="#62BF63" cx="24.772" cy="30.373" r="5.424"/>
<path fill="#FFFFFF" d="M24.772,24.949c2.996,0,5.424,2.428,5.424,5.424c0,2.995-2.428,5.424-5.424,5.424s-5.424-2.429-5.424-5.424
	C19.348,27.377,21.776,24.949,24.772,24.949 M24.772,24.515c-3.23,0-5.858,2.628-5.858,5.858c0,3.229,2.628,5.858,5.858,5.858
	s5.858-2.629,5.858-5.858C30.63,27.143,28.002,24.515,24.772,24.515L24.772,24.515z"/>
<rect x="35.782" y="38.292" fill="#62BF63" width="9.438" height="25.274"/>
<path fill="#FFFFFF" d="M45.22,38.292v25.274h-9.438V38.292H45.22 M45.653,37.858H45.22h-9.438h-0.434v0.434v25.274V64h0.434h9.438
	h0.434v-0.434V38.292V37.858L45.653,37.858z"/>
<circle fill="#62BF63" cx="40.5" cy="30.373" r="5.424"/>
<path fill="#FFFFFF" d="M40.5,24.949c2.996,0,5.424,2.428,5.424,5.424c0,2.995-2.428,5.424-5.424,5.424
	c-2.994,0-5.423-2.429-5.423-5.424C35.077,27.377,37.506,24.949,40.5,24.949 M40.5,24.515c-3.229,0-5.857,2.628-5.857,5.858
	c0,3.229,2.629,5.858,5.857,5.858c3.23,0,5.858-2.629,5.858-5.858C46.358,27.143,43.73,24.515,40.5,24.515L40.5,24.515z"/>
</svg>
