<?xml version="1.0" encoding="utf-8"?>
<!-- Generator: Adobe Illustrator 16.0.0, SVG Export Plug-In . SVG Version: 6.00 Build 0)  -->
<!DOCTYPE svg PUBLIC "-//W3C//DTD SVG 1.1//EN" "http://www.w3.org/Graphics/SVG/1.1/DTD/svg11.dtd">
<svg version="1.1" id="Layer_1" xmlns="http://www.w3.org/2000/svg" xmlns:xlink="http://www.w3.org/1999/xlink" x="0px" y="0px"
	 width="357px" height="315.029px" viewBox="0 0 357 315.029" enable-background="new 0 0 357 315.029" xml:space="preserve">
<linearGradient id="SVGID_1_" gradientUnits="userSpaceOnUse" x1="23.4004" y1="156.833" x2="338.4004" y2="156.833">
	<stop  offset="0" style="stop-color:#F1F6F9"/>
	<stop  offset="1" style="stop-color:#F1F6F9;stop-opacity:0"/>
</linearGradient>
<path fill="url(#SVGID_1_)" d="M190.951,3.545c-31.509,0.001-63.389,11.689-92.656,32.392C28.893,85.03-1.205,145.629,46.83,217.198
	c35.703,53.19,109.38,92.923,169.797,92.923c20.765,0,39.977-4.7,55.522-15.161c70.491-47.413,86.86-146.871,38.813-218.449
	C276.768,25.563,234.206,3.544,190.951,3.545"/>
</svg>
