<?xml version="1.0" encoding="utf-8"?>
<!-- Generator: Adobe Illustrator 16.0.0, SVG Export Plug-In . SVG Version: 6.00 Build 0)  -->
<!DOCTYPE svg PUBLIC "-//W3C//DTD SVG 1.1//EN" "http://www.w3.org/Graphics/SVG/1.1/DTD/svg11.dtd">
<svg version="1.1" id="Group_1256" xmlns="http://www.w3.org/2000/svg" xmlns:xlink="http://www.w3.org/1999/xlink" x="0px" y="0px"
	 width="63.43px" height="63.43px" viewBox="0 0 63.43 63.43" enable-background="new 0 0 63.43 63.43" xml:space="preserve">
<path id="Path_1490" fill="#135D44" d="M31.715,0C14.199,0,0,14.199,0,31.715S14.199,63.43,31.715,63.43S63.43,49.231,63.43,31.715
	l0,0C63.41,14.207,49.223,0.02,31.715,0z M33.037,60.72v-3.9c-0.021-0.729-0.628-1.305-1.358-1.285
	c-0.701,0.02-1.266,0.584-1.285,1.285v3.9C15.403,60.025,3.406,48.029,2.71,33.037H6.61c0.73,0.02,1.338-0.556,1.358-1.285
	c0.02-0.73-0.556-1.338-1.285-1.358c-0.024,0-0.049,0-0.073,0H2.71C3.406,15.403,15.402,3.406,30.394,2.71V6.61
	c-0.02,0.73,0.556,1.338,1.285,1.358c0.73,0.02,1.338-0.556,1.358-1.285c0-0.024,0-0.049,0-0.073V2.71
	C48.029,3.406,60.025,15.403,60.72,30.394h-3.9c-0.729,0.021-1.305,0.628-1.285,1.358c0.02,0.701,0.584,1.266,1.285,1.285h3.9
	C60.024,48.029,48.029,60.024,33.037,60.72z"/>
<path id="Path_1491" fill="#5D78FF" d="M34.227,32.359c0.071-0.208,0.115-0.424,0.13-0.644c-0.013-0.527-0.187-1.038-0.5-1.463
	l8.308-17.8c0.309-0.663,0.021-1.45-0.642-1.759c-0.663-0.309-1.45-0.021-1.759,0.642l0,0l-8.3,17.788
	c-1.442,0.132-2.505,1.409-2.372,2.852c0.124,1.354,1.261,2.388,2.62,2.383c0.22-0.015,0.436-0.059,0.644-0.13l10.315,10.315
	c0.516,0.516,1.353,0.516,1.869,0c0.516-0.517,0.516-1.354,0-1.869L34.227,32.359z"/>
</svg>
